…
    ## Calculating cluster Ep

    ## Calculating cluster End

    ## Calculating cluster Imm

    ## Calculating cluster Schw

``` r
top10 <- All.markers %>% group_by(cluster) %>% top_n(n=-10, wt = p_val) %>% top_n(n=10, wt = avg_log2FC)
top10
```

    ## # A tibble: 60 × 7
    ## # Groups:   cluster [6]
    ##    p_val avg_log2FC pct.1 pct.2 p_val_adj cluster gene  
    ##    <dbl>      <dbl> <dbl> <dbl>     <dbl> <fct>   <chr> 
    ##  1     0      1.01  0.955 0.697         0 Mes     Gpc6  
    ##  2     0      0.857 0.986 0.701         0 Mes     Col3a1
    ##  3     0      0.810 0.952 0.692         0 Mes     Zfhx4 
    ##  4     0      0.711 0.96  0.693         0 Mes     Mfap4 
    ##  5     0      0.704 0.997 0.726         0 Mes     Col1a2
    ##  6     0      0.667 0.97  0.662         0 Mes     Col1a1
    ##  7     0      0.661 0.922 0.644         0 Mes     Postn 
    ##  8     0      0.654 0.997 0.717         0 Mes     Prrx1 
    ##  9     0      0.590 0.952 0.819         0 Mes     Peg3  
    ## 10     0      0.588 0.993 0.749         0 Mes     Lgals1
    ## # … with 50 more rows
…
